^C:\Users\100527945\Documents\Engines Tutorials\Game Engines Lab 1-2\VS Plugins Code\HelloWorld\HelloWorld\HelloWorld.vcxproj
C:\Users\100527945\Documents\Engines Tutorials\Game Engines Lab 1-2\VS Plugins Code\HelloWorld\x64\Release\HelloWorld.lib
C:\Users\100527945\Documents\Engines Tutorials\Game Engines Lab 1-2\VS Plugins Code\HelloWorld\x64\Release\HelloWorld.exp
C:\Users\100527945\Documents\Engines Tutorials\Game Engines Lab 1-2\VS Plugins Code\HelloWorld\x64\Release\HelloWorld.ipdb
C:\Users\100527945\Documents\Engines Tutorials\Game Engines Lab 1-2\VS Plugins Code\HelloWorld\x64\Release\HelloWorld.iobj
^C:\Users\100527945\Documents\Engines Tutorials\Game Engines Lab 1-2\VS Plugins Code\HelloWorld\HelloWorld\HelloWorld.vcxproj
C:\Users\100527945\Documents\Engines Tutorials\Game Engines Lab 1-2\VS Plugins Code\HelloWorld\x64\Release\HelloWorld.lib
C:\Users\100527945\Documents\Engines Tutorials\Game Engines Lab 1-2\VS Plugins Code\HelloWorld\x64\Release\HelloWorld.exp
C:\Users\100527945\Documents\Engines Tutorials\Game Engines Lab 1-2\VS Plugins Code\HelloWorld\x64\Release\HelloWorld.ipdb
C:\Users\100527945\Documents\Engines Tutorials\Game Engines Lab 1-2\VS Plugins Code\HelloWorld\x64\Release\HelloWorld.iobj
